{
  "type": "service_account",
  "project_id": "devops-cloud-tp",
  "private_key_id": "b7aec550b3d97977eb88ad5bb9056b32aa1305db",
  "private_key": "-----BEGIN PRIVATE KEY-----\nMIIEvQIBADANBgkqhkiG9w0BAQEFAASCBKcwggSjAgEAAoIBAQCGLDfVsYIaRJbb\nbHl2nEAGYIZXOA95WOCjhoUz2Seghj9nUM7yiZ+vHVvRDsu1QZaD1V3ztKxYzlzy\nmsx2AN75dcIJsCL5w92xxHYKR/PfzfZkKDWBLGzWc5Fw5+PpObd9iGP2fE+H39RE\nsepADhuNGgAWBv2BE1g9+OtysGXv6s1F05JoZ3h9bLIsunKb81rF9SSkwNZOEYjN\n93yrBw/kpNCTvd4tfFzCow70gPARh8rGqE+ph8/SvpEU/4Ql8UBfkPBPdSTJVUJp\ntluJJSGLrVvJuiEXp9jHz40XpCAL3XCf0GdlMk1M50dFazbcrwfVtOi7obagK57+\nfN5Hjd0HAgMBAAECggEAA3ljK8uWgBEGIT2lx19Lxk+QZZ31S4yFgAZ5PxicV00s\nMj+xgwxIOqkzQEPYpVr1+qtQueeT+Jq0ZZ/okVnIn3bKoIq53JYbzHy/k3Jf+lAS\niG7rTZ4PKrwd8L7rmlnUaEDjWTW3SM8Ymr/1it3MP/dQauxDWOSQ1rzlMfhaVX/A\npqQup4odH8dSbqGES4+VSO7hkEuOUzVq2mkL+aVFBw/Fbyfv3W+CuvfZ4Qsr27Rr\nNPpe8lD+PPiPkSLs3rAUqHJVB5iwYyDbYjyyQ6uqcgOG2TLxTz1QdTu9yaCumPwC\n0cSmIsdU6lFwNR1Tf7kjiV2HefAhvL7h6hfBuj8d9QKBgQC8Bbs/VXjDigGVA4BK\n01DL9pHRxou8v7BjXt0I1E9nCcOy4sCn/xHMDcTYNHBIMVgwpnW/Tq/s2km8U6pj\nHE+mxzWTN91IkxogFs56CM52rHK2UdPIe3ht9kDU1FXfZsqQ/WH17u0f0WPXo0Lo\nZUQzi3WOCfngNdUpeXxfWnfGnQKBgQC2rnjt4CIswL5UjENA0cKWiV13RLjdnu6k\nIoxY1NXCeyAUWBpt963HAiFDStYSkNF8Qak5gM2YTTFxQATL6W4/CU4pg8UuI89G\nNCOPUbbKmbK1nHqh9aze5CIYIJ46cIioTZqiPr/hhz8/61fmZcgKQZF605ZWOFxX\n72LKmxLO8wKBgG0BeaRnPiNHYFFu/TLkPiRxp+qRjDP6gh2qQsU6qWoYTB/qvDzp\ncPz3QpcCF9KS4QkbiIpH6VCM4VDQxKi/IiKTvajDK4RG3E+cSUqQznoY0kyHNhw2\nEQTXTpDVJY/mPSw/6ko1ob3fnF3JJiIri5XClX2qpPZq31EzQHrbrTM1AoGBAIHF\nIPyB+mTmKo5u8Rtrppo/TFj8RYKRcx6/uAkmcA7uXhR1nZi+mADFv5FI6RdZLqbh\nEfBaUjI9q8CyZHXiBcHbv114UKr9HzHUueoGdx4m3q9qUCcbGUlgr+OJ0DzdUgaU\n0iMtBiuUYtbqPI/bf6XhfBHPmnz3HooM8JXSYSMHAoGAZRO8xs/qq0lpx+pnT7hF\n2V0FNndLFf9wwj0TJKuaiWHtuxvDtRKVImyz762ZJrpRPM1dl1PXkWOW581GOyy8\ntNOjQDXOI4D5SPARuf7kzJYg1CzmGDUT/WTVDWcIEZP5C09Kibmv6m20Z2C0k4hN\noXaftkaiqGwdL3fPJTURLLM=\n-----END PRIVATE KEY-----\n",
  "client_email": "devops-cloud-srv-acc@devops-cloud-tp.iam.gserviceaccount.com",
  "client_id": "105427377861398289922",
  "auth_uri": "https://accounts.google.com/o/oauth2/auth",
  "token_uri": "https://oauth2.googleapis.com/token",
  "auth_provider_x509_cert_url": "https://www.googleapis.com/oauth2/v1/certs",
  "client_x509_cert_url": "https://www.googleapis.com/robot/v1/metadata/x509/devops-cloud-srv-acc%40devops-cloud-tp.iam.gserviceaccount.com",
  "universe_domain": "googleapis.com"
}
